
Name, Date, Open price, Close price
Vodafone, Tue Sep 19 15:49:15 BST 2017,2014.173939978383,1753.3184727487915

Date, Time, Price, Volume
Tuesday 26 September 2017,09:00:00,1845.066592646258,121
Tuesday 26 September 2017,09:00:21,1881.651439492652,564
Tuesday 26 September 2017,09:00:42,1763.5966462594079,986
Tuesday 26 September 2017,09:01:03,1796.3141840317314,490
Tuesday 26 September 2017,09:01:24,1863.7796545165772,776
Tuesday 26 September 2017,09:01:45,1884.6778486830058,479
Tuesday 26 September 2017,09:02:06,1900.490041077055,513
Tuesday 26 September 2017,09:02:27,1821.8041098538781,126
Tuesday 26 September 2017,09:02:48,1904.246871242507,645
Tuesday 26 September 2017,09:03:09,1753.3184727487915,883

Name, Date, Open price, Close price
Vodafone, Wed Sep 20 15:49:15 BST 2017,1753.3184727487915,1956.687335575596

Date, Time, Price, Volume
Tuesday 26 September 2017,09:00:00,1816.135702505964,187
Tuesday 26 September 2017,09:00:42,1906.273773241993,177
Tuesday 26 September 2017,09:01:24,1775.227606343551,984
Tuesday 26 September 2017,09:02:06,1767.425923204358,626
Tuesday 26 September 2017,09:02:48,1757.7693203285341,972
Tuesday 26 September 2017,09:03:30,1915.9700465197502,819
Tuesday 26 September 2017,09:04:12,1871.0972722153913,477
Tuesday 26 September 2017,09:04:54,1777.411291847056,671
Tuesday 26 September 2017,09:05:36,1894.8087264807368,836
Tuesday 26 September 2017,09:06:18,1956.687335575596,933

Name, Date, Open price, Close price
Vodafone, Thu Sep 21 15:49:15 BST 2017,1956.687335575596,1975.5619134175004

Date, Time, Price, Volume
Tuesday 26 September 2017,09:00:00,1965.8509186694498,765
Tuesday 26 September 2017,09:01:03,1964.9181218068986,618
Tuesday 26 September 2017,09:02:06,1958.1341780808918,753
Tuesday 26 September 2017,09:03:09,1959.2309569549352,701
Tuesday 26 September 2017,09:04:12,1961.1071931607466,893
Tuesday 26 September 2017,09:05:15,1971.5258015304323,312
Tuesday 26 September 2017,09:06:18,1970.2337940494342,515
Tuesday 26 September 2017,09:07:21,1972.0230623752118,190
Tuesday 26 September 2017,09:08:24,1975.3632528488065,501
Tuesday 26 September 2017,09:09:27,1975.5619134175004,600

Name, Date, Open price, Close price
Vodafone, Fri Sep 22 15:49:15 BST 2017,1975.5619134175004,1901.1790986782082

Date, Time, Price, Volume
Tuesday 26 September 2017,09:00:00,1908.3099030978326,915
Tuesday 26 September 2017,09:01:24,1903.796172381029,487
Tuesday 26 September 2017,09:02:48,1909.5803117655175,893
Tuesday 26 September 2017,09:04:12,1908.6936617938134,673
Tuesday 26 September 2017,09:05:36,1948.6872800092663,523
Tuesday 26 September 2017,09:07:00,1937.0910232726173,546
Tuesday 26 September 2017,09:08:24,1954.953454162598,519
Tuesday 26 September 2017,09:09:48,1964.1766288745187,444
Tuesday 26 September 2017,09:11:12,1974.270142939436,329
Tuesday 26 September 2017,09:12:36,1901.1790986782082,113

Name, Date, Open price, Close price
Vodafone, Mon Sep 25 15:49:15 BST 2017,1901.1790986782082,1620.310490570689

Date, Time, Price, Volume
Tuesday 26 September 2017,09:00:00,1660.7296076661596,214
Tuesday 26 September 2017,09:01:45,1702.56173228326,680
Tuesday 26 September 2017,09:03:30,1873.1263183276396,754
Tuesday 26 September 2017,09:05:15,1702.1016421822214,327
Tuesday 26 September 2017,09:07:00,1787.7413076477178,582
Tuesday 26 September 2017,09:08:45,1832.9880245559489,945
Tuesday 26 September 2017,09:10:30,1668.2544705463106,678
Tuesday 26 September 2017,09:12:15,1836.0482444488166,142
Tuesday 26 September 2017,09:14:00,1885.3254514268895,637
Tuesday 26 September 2017,09:15:45,1620.310490570689,955

Name, Date, Open price, Close price
HSBC, Tue Sep 19 15:49:15 BST 2017,2396.043430359552,1950.507349321224

Date, Time, Price, Volume
Tuesday 26 September 2017,09:00:00,2245.466708760456,800
Tuesday 26 September 2017,09:02:06,2075.1528191678326,682
Tuesday 26 September 2017,09:04:12,2068.4960528898096,462
Tuesday 26 September 2017,09:06:18,2100.509838632314,292
Tuesday 26 September 2017,09:08:24,1960.1583713224968,595
Tuesday 26 September 2017,09:10:30,2272.1809897396492,308
Tuesday 26 September 2017,09:12:36,2081.381191431859,501
Tuesday 26 September 2017,09:14:42,2199.309929906135,758
Tuesday 26 September 2017,09:16:48,2382.706360553724,996
Tuesday 26 September 2017,09:18:54,1950.507349321224,916

Name, Date, Open price, Close price
HSBC, Wed Sep 20 15:49:15 BST 2017,1950.507349321224,1982.3193655190803

Date, Time, Price, Volume
Tuesday 26 September 2017,09:00:00,1956.9173710223213,637
Tuesday 26 September 2017,09:02:27,1961.1476826798917,608
Tuesday 26 September 2017,09:04:54,1954.283987877025,608
Tuesday 26 September 2017,09:07:21,1954.8653036103792,757
Tuesday 26 September 2017,09:09:48,1961.917135963509,752
Tuesday 26 September 2017,09:12:15,1963.8257226509784,250
Tuesday 26 September 2017,09:14:42,1961.979432952861,473
Tuesday 26 September 2017,09:17:09,1963.1914242882056,520
Tuesday 26 September 2017,09:19:36,1969.2815731249534,417
Tuesday 26 September 2017,09:22:03,1982.3193655190803,533

Name, Date, Open price, Close price
HSBC, Thu Sep 21 15:49:15 BST 2017,1982.3193655190803,1858.789297145884

Date, Time, Price, Volume
Tuesday 26 September 2017,09:00:00,1883.4022741007168,170
Tuesday 26 September 2017,09:02:48,1869.4830839741337,557
Tuesday 26 September 2017,09:05:36,1919.9384421084012,598
Tuesday 26 September 2017,09:08:24,1924.0381866638097,814
Tuesday 26 September 2017,09:11:12,1893.9561694375093,387
Tuesday 26 September 2017,09:14:00,1926.3430848890246,562
Tuesday 26 September 2017,09:16:48,1978.1707173196185,230
Tuesday 26 September 2017,09:19:36,1938.2260129809051,437
Tuesday 26 September 2017,09:22:24,1980.5333923160003,593
Tuesday 26 September 2017,09:25:12,1858.789297145884,866

Name, Date, Open price, Close price
HSBC, Fri Sep 22 15:49:15 BST 2017,1858.789297145884,1957.6909769875422

Date, Time, Price, Volume
Tuesday 26 September 2017,09:00:00,1873.892348076711,255
Tuesday 26 September 2017,09:03:09,1885.304827831846,422
Tuesday 26 September 2017,09:06:18,1878.9673042759346,181
Tuesday 26 September 2017,09:09:27,1917.3637410362144,709
Tuesday 26 September 2017,09:12:36,1876.452387561719,978
Tuesday 26 September 2017,09:15:45,1866.6042261563412,308
Tuesday 26 September 2017,09:18:54,1936.2611009501325,695
Tuesday 26 September 2017,09:22:03,1925.4370817909742,527
Tuesday 26 September 2017,09:25:12,1936.112797938799,363
Tuesday 26 September 2017,09:28:21,1957.6909769875422,556

Name, Date, Open price, Close price
HSBC, Mon Sep 25 15:49:15 BST 2017,1957.6909769875422,1740.6275734994492

Date, Time, Price, Volume
Tuesday 26 September 2017,09:00:00,1861.610597090879,207
Tuesday 26 September 2017,09:03:30,1772.5536103957436,281
Tuesday 26 September 2017,09:07:00,1910.7827293004352,693
Tuesday 26 September 2017,09:10:30,1745.2412174380406,794
Tuesday 26 September 2017,09:14:00,1747.3562346858569,128
Tuesday 26 September 2017,09:17:30,1941.891232461821,218
Tuesday 26 September 2017,09:21:00,1953.4348122936462,338
Tuesday 26 September 2017,09:24:30,1757.9518830839168,840
Tuesday 26 September 2017,09:28:00,1773.7371104052834,768
Tuesday 26 September 2017,09:31:30,1740.6275734994492,923
